@startuml
title Theater Seat Allotment API
actor Customer

Customer -> SeatAPI: occupy seat
SeatAPI -> Theater: provide name & ticket

alt Seats Available
    alt Name & Ticket don't exist in records
        Theater -> occupy_seat: Allot a seat
        Theater <-- occupy_seat : seat number allotted

    else Duplicate Details
        Theater -> occupy_seat: Duplicate records
        Theater <-- occupy_seat: Provide Valid Details
    end

else Seats UnAvailable
        Theater -> occupy_seat: All seats occupied
        Theater <-- occupy_seat: HouseFul
end

Customer <-- Theater: Allotted seat or relevant message


Customer -> SeatAPI: vacate seat
SeatAPI -> Theater: provide seat number

alt Seat Number exist in records
    Theater -> vacate_seat: Vacate the seat
    Theater <-- vacate_seat: Seat Vacated
else Seat Number doesn't exist in records
    Theater -> vacate_seat: Empty seat
    Theater <-- vacate_seat: Seat Already Vacant
end
Customer <- Theater: Seat Vacant or relevant message



Customer -> SeatAPI: get_info
SeatAPI -> Theater: provide any one of name, ticket, seat-no,

alt valid details provided
    Theater -> get_info: ticket or seat number or name
    Theater <-- get_info: Customer Details
else Invalid Details
    Theater -> get_info: Invalid Details
    Theater <-- get_info: Provide Valid Details
end

Customer <-- Theater: Customer Details or relevant message

@enduml
